dplyr
…
mtcars %>% class()
#> [1] "data.frame"
mtcars %>% as_tibble() %>% class()
#> [1] "tbl_df"     "tbl"        "data.frame"

You can refer to tibbles chapter in R for data science or vignette("tibble") to find the difference between tibble and data.frame.

Tibble is the central data structure for the set of packages known as the tidyverse, including dplyr, ggplot2, tidyr, and readr.

2.1 Creating tibbles

Create a tibble from an existing object with as_tibble(). This will work for reasonable inputs that are already data.frames, lists, matrices, or tables.

as_tibble(iris)
#> # A tibble: 150 x 5
#>   Sepal.Length Sepal.Width Petal.Length Petal.Width Species
#>          <dbl>       <dbl>        <dbl>       <dbl> <fct>  
#> 1          5.1         3.5          1.4         0.2 setosa 
#> 2          4.9         3            1.4         0.2 setosa 
#> 3          4.7         3.2          1.3         0.2 setosa 
#> 4          4.6         3.1          1.5         0.2 setosa 
#> # … with 146 more rows

You can also create a new tibble from column vectors with tibble(). tibble() will automatically recycle inputs of length 1, and allows you to refer to variables that you just created, as shown below.

tibble(x = 1:5, y = 1, z = x ^ 2 + y)
#> # A tibble: 5 x 3
#>       x     y     z
#>   <int> <dbl> <dbl>
#> 1     1     1     2
#> 2     2     1     5
#> 3     3     1    10
#> 4     4     1    17
#> # … with 1 more row
…
2.2 Display

Tibbles have a refined print method that shows only the first 10 rows (we set it to 4 in this document), and all the columns that fit on screen (by default). This makes it much easier to work with large data. In addition to its name, each column reports its type, a nice feature borrowed from str():

starwars
#> # A tibble: 87 x 14
#>   name     height  mass hair_color skin_color  eye_color birth_year sex   gender
#>   <chr>     <int> <dbl> <chr>      <chr>       <chr>          <dbl> <chr> <chr> 
#> 1 Luke Sk…    172    77 blond      fair        blue            19   male  mascu…
#> 2 C-3PO       167    75 <NA>       gold        yellow         112   none  mascu…
#> 3 R2-D2        96    32 <NA>       white, blue red             33   none  mascu…
#> 4 Darth V…    202   136 none       white       yellow          41.9 male  mascu…
#> # … with 83 more rows, and 5 more variables: homeworld <chr>, species <chr>,
#> #   films <list>, vehicles <list>, starships <list>
…
You can see more details in ?vctrs::vec_as_names and Names attribute chapter in Tidyverse design guide.

3 Single table verbs

3.1 Arrange rows by column values: arrange()

arrange() orders the rows of a data frame by the values of selected columns.

starwars %>% arrange(height, mass)
#> # A tibble: 87 x 14
#>   name      height  mass hair_color skin_color eye_color birth_year sex   gender
#>   <chr>      <int> <dbl> <chr>      <chr>      <chr>          <dbl> <chr> <chr> 
#> 1 Yoda          66    17 white      green      brown            896 male  mascu…
#> 2 Ratts Ty…     79    15 none       grey, blue unknown           NA male  mascu…
#> 3 Wicket S…     88    20 brown      brown      brown              8 male  mascu…
#> 4 Dud Bolt      94    45 none       blue, grey yellow            NA male  mascu…
#> # … with 83 more rows, and 5 more variables: homeworld <chr>, species <chr>,
#> #   films <list>, vehicles <list>, starships <list>

starwars %>% arrange(desc(height))
#> # A tibble: 87 x 14
#>   name     height  mass hair_color skin_color eye_color birth_year sex   gender 
#>   <chr>     <int> <dbl> <chr>      <chr>      <chr>          <dbl> <chr> <chr>  
#> 1 Yarael …    264    NA none       white      yellow            NA male  mascul…
#> 2 Tarfful     234   136 brown      brown      blue              NA male  mascul…
#> 3 Lama Su     229    88 none       grey       black             NA male  mascul…
#> 4 Chewbac…    228   112 brown      unknown    blue             200 male  mascul…
#> # … with 83 more rows, and 5 more variables: homeworld <chr>, species <chr>,
#> #   films <list>, vehicles <list>, starships <list>

3.2 Subset distinct/unique rows: distinct()

distinct() select only unique/distinct rows from a data frame.

df <- tibble(
  x = sample(10, 100, rep = TRUE),
  y = sample(10, 100, rep = TRUE)
)
df
#> # A tibble: 100 x 2
#>       x     y
#>   <int> <int>
#> 1     6     8
#> 2     8     2
#> 3     5     8
#> 4     3     6
#> # … with 96 more rows

df %>% nrow()
#> [1] 100

df %>% distinct()
#> # A tibble: 64 x 2
#>       x     y
#>   <int> <int>
#> 1     6     8
#> 2     8     2
#> 3     5     8
#> 4     3     6
#> # … with 60 more rows

df %>% distinct() %>% nrow()
#> [1] 64

df %>% distinct(x)
#> # A tibble: 10 x 1
#>       x
#>   <int>
#> 1     6
#> 2     8
#> 3     5
#> 4     3
#> # … with 6 more rows

df %>% distinct(y)
#> # A tibble: 10 x 1
#>       y
#>   <int>
#> 1     8
#> 2     2
#> 3     6
#> 4     1
#> # … with 6 more rows

df %>% distinct(x, .keep_all = T)
#> # A tibble: 10 x 2
#>       x     y
#>   <int> <int>
#> 1     6     8
#> 2     8     2
#> 3     5     8
#> 4     3     6
#> # … with 6 more rows

df %>% distinct(y, .keep_all = T)
#> # A tibble: 10 x 2
#>       x     y
#>   <int> <int>
#> 1     6     8
#> 2     8     2
#> 3     3     6
#> 4     2     1
#> # … with 6 more rows

3.3 Subset rows using column values: filter()

The filter() function is used to subset a data frame, retaining all rows that satisfy your conditions. To be retained, the row must produce a value of TRUE for all conditions. Note that when a condition evaluates to NA the row will be dropped.

starwars %>% 
  filter(hair_color == "none" & eye_color == "black")
#> # A tibble: 9 x 14
#>   name    height  mass hair_color skin_color  eye_color birth_year sex   gender 
#>   <chr>    <int> <dbl> <chr>      <chr>       <chr>          <dbl> <chr> <chr>  
#> 1 Nien N…    160    68 none       grey        black             NA male  mascul…
#> 2 Gasgano    122    NA none       white, blue black             NA male  mascul…
#> 3 Kit Fi…    196    87 none       green       black             NA male  mascul…
#> 4 Plo Ko…    188    80 none       orange      black             22 male  mascul…
#> # … with 5 more rows, and 5 more variables: homeworld <chr>, species <chr>,
#> #   films <list>, vehicles <list>, starships <list>

starwars %>% 
  filter(hair_color == "none" | eye_color == "black")
#> # A tibble: 38 x 14
#>   name     height  mass hair_color skin_color eye_color birth_year sex   gender 
#>   <chr>     <int> <dbl> <chr>      <chr>      <chr>          <dbl> <chr> <chr>  
#> 1 Darth V…    202   136 none       white      yellow          41.9 male  mascul…
#> 2 Greedo      173    74 <NA>       green      black           44   male  mascul…
#> 3 IG-88       200   140 none       metal      red             15   none  mascul…
#> 4 Bossk       190   113 none       green      red             53   male  mascul…
#> # … with 34 more rows, and 5 more variables: homeworld <chr>, species <chr>,
#> #   films <list>, vehicles <list>, starships <list>

3.4 Subset columns using their names and types: select()

select() select variables in a data frame

starwars %>% select(hair_color, skin_color, eye_color)
#> # A tibble: 87 x 3
#>   hair_color skin_color  eye_color
#>   <chr>      <chr>       <chr>    
#> 1 blond      fair        blue     
#> 2 <NA>       gold        yellow   
#> 3 <NA>       white, blue red      
#> 4 none       white       yellow   
#> # … with 83 more rows

3.5 Create, modify, and delete columns: mutate() transmute()

mutate() adds new variables and preserves existing ones; transmute() adds new variables and drops existing ones. New variables overwrite existing variables of the same name. Variables can be removed by setting their value to NULL.

starwars %>% 
  select(name, mass) %>% 
  mutate(
    mass2 = mass * 2,
    mass2_squared = mass2 * mass2
  )
#> # A tibble: 87 x 4
#>   name            mass mass2 mass2_squared
#>   <chr>          <dbl> <dbl>         <dbl>
#> 1 Luke Skywalker    77   154         23716
#> 2 C-3PO             75   150         22500
#> 3 R2-D2             32    64          4096
#> 4 Darth Vader      136   272         73984
#> # … with 83 more rows

starwars %>% 
  transmute(mass2 = mass * 2)
#> # A tibble: 87 x 1
#>   mass2
#>   <dbl>
#> 1   154
#> 2   150
#> 3    64
#> 4   272
#> # … with 83 more rows

starwars %>% 
  select(name, height, mass, homeworld) %>% 
  mutate(
    mass = NULL,
    height = height * 0.0328084
  )
#> # A tibble: 87 x 3
#>   name           height homeworld
#>   <chr>           <dbl> <chr>    
#> 1 Luke Skywalker   5.64 Tatooine 
#> 2 C-3PO            5.48 Tatooine 
#> 3 R2-D2            3.15 Naboo    
#> 4 Darth Vader      6.63 Tatooine 
#> # … with 83 more rows

3.6 Extract a single column: pull()

pull() is similar to $. It’s mostly useful because it looks a little nicer in pipes, it can optionally name the output.

mtcars %>% as_tibble()
#> # A tibble: 32 x 11
#>     mpg   cyl  disp    hp  drat    wt  qsec    vs    am  gear  carb
#>   <dbl> <dbl> <dbl> <dbl> <dbl> <dbl> <dbl> <dbl> <dbl> <dbl> <dbl>
#> 1  21       6   160   110  3.9   2.62  16.5     0     1     4     4
#> 2  21       6   160   110  3.9   2.88  17.0     0     1     4     4
#> 3  22.8     4   108    93  3.85  2.32  18.6     1     1     4     1
#> 4  21.4     6   258   110  3.08  3.22  19.4     1     0     3     1
#> # … with 28 more rows
…
df %>% relocate(f, .before = b)
#> # A tibble: 1 x 6
#>       a f         b     c d     e    
#>   <dbl> <chr> <dbl> <dbl> <chr> <chr>
#> 1     1 a         1     1 a     a

3.8 Rename columns: rename() rename_with()

rename() changes the names of individual variables using new_name = old_name syntax; rename_with() renames columns using a function.

starwars %>% rename(home_world = homeworld) %>% relocate(home_world)
#> # A tibble: 87 x 14
#>   home_world name  height  mass hair_color skin_color eye_color birth_year sex  
#>   <chr>      <chr>  <int> <dbl> <chr>      <chr>      <chr>          <dbl> <chr>
#> 1 Tatooine   Luke…    172    77 blond      fair       blue            19   male 
#> 2 Tatooine   C-3PO    167    75 <NA>       gold       yellow         112   none 
#> 3 Naboo      R2-D2     96    32 <NA>       white, bl… red             33   none 
#> 4 Tatooine   Dart…    202   136 none       white      yellow          41.9 male 
#> # … with 83 more rows, and 5 more variables: gender <chr>, species <chr>,
#> #   films <list>, vehicles <list>, starships <list>

starwars %>% rename_with(str_to_upper)
#> # A tibble: 87 x 14
#>   NAME     HEIGHT  MASS HAIR_COLOR SKIN_COLOR  EYE_COLOR BIRTH_YEAR SEX   GENDER
#>   <chr>     <int> <dbl> <chr>      <chr>       <chr>          <dbl> <chr> <chr> 
#> 1 Luke Sk…    172    77 blond      fair        blue            19   male  mascu…
#> 2 C-3PO       167    75 <NA>       gold        yellow         112   none  mascu…
#> 3 R2-D2        96    32 <NA>       white, blue red             33   none  mascu…
#> 4 Darth V…    202   136 none       white       yellow          41.9 male  mascu…
#> # … with 83 more rows, and 5 more variables: HOMEWORLD <chr>, SPECIES <chr>,
#> #   FILMS <list>, VEHICLES <list>, STARSHIPS <list>

3.9 Subset rows using their positions: slice() slice_head() slice_tail() slice_min() slice_max() slice_sample()

slice() lets you index rows by their (integer) locations. It allows you to select, remove, and duplicate rows. It is accompanied by a number of helpers for common use cases:

slice_head() and slice_tail() select the first or last rows.

slice_sample() randomly selects rows. Use the option prop to choose a certain proportion of the cases.

slice_min() and slice_max() select rows with highest or lowest values of a variable.

starwars %>% slice(5:10)
#> # A tibble: 6 x 14
#>   name     height  mass hair_color  skin_color eye_color birth_year sex   gender
#>   <chr>     <int> <dbl> <chr>       <chr>      <chr>          <dbl> <chr> <chr> 
#> 1 Leia Or…    150    49 brown       light      brown             19 fema… femin…
#> 2 Owen La…    178   120 brown, grey light      blue              52 male  mascu…
#> 3 Beru Wh…    165    75 brown       light      blue              47 fema… femin…
#> 4 R5-D4        97    32 <NA>        white, red red               NA none  mascu…
#> # … with 2 more rows, and 5 more variables: homeworld <chr>, species <chr>,
#> #   films <list>, vehicles <list>, starships <list>
…
starwars %>% slice_tail(n = 3)
#> # A tibble: 3 x 14
#>   name     height  mass hair_color skin_color eye_color birth_year sex    gender
#>   <chr>     <int> <dbl> <chr>      <chr>      <chr>          <dbl> <chr>  <chr> 
#> 1 BB8          NA    NA none       none       black             NA none   mascu…
#> 2 Captain…     NA    NA unknown    unknown    unknown           NA <NA>   <NA>  
#> 3 Padmé A…    165    45 brown      light      brown             46 female femin…
#> # … with 5 more variables: homeworld <chr>, species <chr>, films <list>,
#> #   vehicles <list>, starships <list>

starwars %>% slice_sample(n = 5)
#> # A tibble: 5 x 14
#>   name    height  mass hair_color skin_color   eye_color birth_year sex   gender
#>   <chr>    <int> <dbl> <chr>      <chr>        <chr>          <dbl> <chr> <chr> 
#> 1 Watto      137    NA black      blue, grey   yellow            NA male  mascu…
#> 2 Mace W…    188    84 none       dark         brown             72 male  mascu…
#> 3 Ben Qu…    163    65 none       grey, green… orange            NA male  mascu…
#> 4 Dud Bo…     94    45 none       blue, grey   yellow            NA male  mascu…
#> # … with 1 more row, and 5 more variables: homeworld <chr>, species <chr>,
#> #   films <list>, vehicles <list>, starships <list>

starwars %>% slice_sample(prop = 0.1)
#> # A tibble: 8 x 14
#>   name    height  mass hair_color  skin_color  eye_color birth_year sex   gender
#>   <chr>    <int> <dbl> <chr>       <chr>       <chr>          <dbl> <chr> <chr> 
#> 1 Ben Qu…    163    65 none        grey, gree… orange            NA male  mascu…
#> 2 Padmé …    165    45 brown       light       brown             46 fema… femin…
#> 3 Obi-Wa…    182    77 auburn, wh… fair        blue-gray         57 male  mascu…
#> 4 Qui-Go…    193    89 brown       fair        blue              92 male  mascu…
#> # … with 4 more rows, and 5 more variables: homeworld <chr>, species <chr>,
#> #   films <list>, vehicles <list>, starships <list>
…
summarise() and summarize() are synonyms.

summarise() often work together with group_by().

starwars %>% 
  summarise(mean_height = mean(height, na.rm = TRUE))
#> # A tibble: 1 x 1
#>   mean_height
#>         <dbl>
#> 1        174.

starwars %>% 
  group_by(species) %>% 
  summarise(mean_height = mean(height, na.rm = TRUE))
#> # A tibble: 38 x 2
#>   species  mean_height
#>   <chr>          <dbl>
#> 1 Aleena            79
#> 2 Besalisk         198
#> 3 Cerean           198
#> 4 Chagrian         196
#> # … with 34 more rows

3.11 Count observations by group: count() tally() add_count() add_tally()

count() lets you quickly count the unique values of one or more variables, tally() count number of rows. add_count() and add_tally() add a new column with group-wise counts.

starwars %>% count(species)
#> # A tibble: 38 x 2
#>   species      n
#>   <chr>    <int>
#> 1 Aleena       1
#> 2 Besalisk     1
#> 3 Cerean       1
#> 4 Chagrian     1
#> # … with 34 more rows
…
Tidyverse selections implement a dialect of R where operators make it easy to select variables:

: for selecting a range of consecutive variables.

! for taking the complement of a set of variables.

& and | for selecting the intersection or the union of two sets of variables.

c() for combining selections.

iris <- iris %>% as_tibble()

starwars %>% select(name:mass)
#> # A tibble: 87 x 3
#>   name           height  mass
#>   <chr>           <int> <dbl>
#> 1 Luke Skywalker    172    77
#> 2 C-3PO             167    75
#> 3 R2-D2              96    32
#> 4 Darth Vader       202   136
#> # … with 83 more rows

starwars %>% select(!(name:mass))
#> # A tibble: 87 x 11
#>   hair_color skin_color  eye_color birth_year sex   gender    homeworld species
#>   <chr>      <chr>       <chr>          <dbl> <chr> <chr>     <chr>     <chr>  
#> 1 blond      fair        blue            19   male  masculine Tatooine  Human  
#> 2 <NA>       gold        yellow         112   none  masculine Tatooine  Droid  
#> 3 <NA>       white, blue red             33   none  masculine Naboo     Droid  
#> 4 none       white       yellow          41.9 male  masculine Tatooine  Human  
#> # … with 83 more rows, and 3 more variables: films <list>, vehicles <list>,
#> #   starships <list>

iris %>% select(starts_with("Petal") & ends_with("Width"))
#> # A tibble: 150 x 1
#>   Petal.Width
#>         <dbl>
#> 1         0.2
#> 2         0.2
#> 3         0.2
#> 4         0.2
#> # … with 146 more rows

iris %>% select(starts_with("Petal") | ends_with("Width"))
#> # A tibble: 150 x 3
#>   Petal.Length Petal.Width Sepal.Width
#>          <dbl>       <dbl>       <dbl>
#> 1          1.4         0.2         3.5
#> 2          1.4         0.2         3  
#> 3          1.3         0.2         3.2
#> 4          1.5         0.2         3.1
#> # … with 146 more rows

iris %>% select(c(starts_with("Petal"), Species))
#> # A tibble: 150 x 3
#>   Petal.Length Petal.Width Species
#>          <dbl>       <dbl> <fct>  
#> 1          1.4         0.2 setosa 
#> 2          1.4         0.2 setosa 
#> 3          1.3         0.2 setosa 
#> 4          1.5         0.2 setosa 
#> # … with 146 more rows

In addition, you can use selection helpers. Some helpers select specific columns:

everything(): Matches all variables.

last_col(): Select last variable, possibly with an offset.

iris %>% select(everything())
#> # A tibble: 150 x 5
#>   Sepal.Length Sepal.Width Petal.Length Petal.Width Species
#>          <dbl>       <dbl>        <dbl>       <dbl> <fct>  
#> 1          5.1         3.5          1.4         0.2 setosa 
#> 2          4.9         3            1.4         0.2 setosa 
#> 3          4.7         3.2          1.3         0.2 setosa 
#> 4          4.6         3.1          1.5         0.2 setosa 
#> # … with 146 more rows

iris %>% select(last_col())
#> # A tibble: 150 x 1
#>   Species
#>   <fct>  
#> 1 setosa 
#> 2 setosa 
#> 3 setosa 
#> 4 setosa 
#> # … with 146 more rows

iris %>% select(last_col(0:2))
#> # A tibble: 150 x 3
#>   Species Petal.Width Petal.Length
#>   <fct>         <dbl>        <dbl>
#> 1 setosa          0.2          1.4
#> 2 setosa          0.2          1.4
#> 3 setosa          0.2          1.3
#> 4 setosa          0.2          1.5
#> # … with 146 more rows

These helpers select variables by matching patterns in their names:

starts_with(): Starts with a prefix.

ends_with(): Ends with a suffix.

contains(): Contains a literal string.

matches(): Matches a regular expression.

num_range(): Matches a numerical range like x01, x02, x03.

iris %>% select(starts_with("Sepal"))
#> # A tibble: 150 x 2
#>   Sepal.Length Sepal.Width
#>          <dbl>       <dbl>
#> 1          5.1         3.5
#> 2          4.9         3  
#> 3          4.7         3.2
#> 4          4.6         3.1
#> # … with 146 more rows

iris %>% select(ends_with("Width"))
#> # A tibble: 150 x 2
#>   Sepal.Width Petal.Width
#>         <dbl>       <dbl>
#> 1         3.5         0.2
#> 2         3           0.2
#> 3         3.2         0.2
#> 4         3.1         0.2
#> # … with 146 more rows

iris %>% select(starts_with(c("Petal", "Sepal")))
#> # A tibble: 150 x 4
#>   Petal.Length Petal.Width Sepal.Length Sepal.Width
#>          <dbl>       <dbl>        <dbl>       <dbl>
#> 1          1.4         0.2          5.1         3.5
#> 2          1.4         0.2          4.9         3  
#> 3          1.3         0.2          4.7         3.2
#> 4          1.5         0.2          4.6         3.1
#> # … with 146 more rows
…
