tidyr
…
Drop rows that correspond to missing values

You can drop rows that contain only NA in the values_to column:

df <- tribble(
  ~id, ~choice1, ~choice2, ~choice3,
  1, "A", "B", "C",
  2, "C", "B",  NA,
  3, "D",  NA,  NA,
  4, "B", "D",  NA
)

df %>% pivot_longer(!id)
#> # A tibble: 12 x 3
#>       id name    value
#>    <dbl> <chr>   <chr>
#>  1     1 choice1 A    
#>  2     1 choice2 B    
#>  3     1 choice3 C    
#>  4     2 choice1 C    
#>  5     2 choice2 B    
#>  6     2 choice3 <NA> 
#>  7     3 choice1 D    
#>  8     3 choice2 <NA> 
#>  9     3 choice3 <NA> 
#> 10     4 choice1 B    
#> # … with 2 more rows
…
strip common prefix

You can use names_prefix to strip common prefix:

billboard
#> # A tibble: 317 x 79
#>    artist   track   date.entered   wk1   wk2   wk3   wk4   wk5   wk6   wk7   wk8
#>    <chr>    <chr>   <date>       <dbl> <dbl> <dbl> <dbl> <dbl> <dbl> <dbl> <dbl>
#>  1 2 Pac    Baby D… 2000-02-26      87    82    72    77    87    94    99    NA
#>  2 2Ge+her  The Ha… 2000-09-02      91    87    92    NA    NA    NA    NA    NA
#>  3 3 Doors… Krypto… 2000-04-08      81    70    68    67    66    57    54    53
#>  4 3 Doors… Loser   2000-10-21      76    76    72    69    67    65    55    59
#>  5 504 Boyz Wobble… 2000-04-15      57    34    25    17    17    31    36    49
#>  6 98^0     Give M… 2000-08-19      51    39    34    26    26    19     2     2
#>  7 A*Teens  Dancin… 2000-07-08      97    97    96    95   100    NA    NA    NA
#>  8 Aaliyah  I Don'… 2000-01-29      84    62    51    41    38    35    35    38
#>  9 Aaliyah  Try Ag… 2000-03-18      59    53    38    28    21    18    16    14
#> 10 Adams, … Open M… 2000-08-26      76    76    74    69    68    67    61    58
#> # … with 307 more rows, and 68 more variables: wk9 <dbl>, wk10 <dbl>,
#> #   wk11 <dbl>, wk12 <dbl>, wk13 <dbl>, wk14 <dbl>, wk15 <dbl>, wk16 <dbl>,
#> #   wk17 <dbl>, wk18 <dbl>, wk19 <dbl>, wk20 <dbl>, wk21 <dbl>, wk22 <dbl>,
#> #   wk23 <dbl>, wk24 <dbl>, wk25 <dbl>, wk26 <dbl>, wk27 <dbl>, wk28 <dbl>,
#> #   wk29 <dbl>, wk30 <dbl>, wk31 <dbl>, wk32 <dbl>, wk33 <dbl>, wk34 <dbl>,
#> #   wk35 <dbl>, wk36 <dbl>, wk37 <dbl>, wk38 <dbl>, wk39 <dbl>, wk40 <dbl>,
#> #   wk41 <dbl>, wk42 <dbl>, wk43 <dbl>, wk44 <dbl>, wk45 <dbl>, wk46 <dbl>,
#> #   wk47 <dbl>, wk48 <dbl>, wk49 <dbl>, wk50 <dbl>, wk51 <dbl>, wk52 <dbl>,
#> #   wk53 <dbl>, wk54 <dbl>, wk55 <dbl>, wk56 <dbl>, wk57 <dbl>, wk58 <dbl>,
#> #   wk59 <dbl>, wk60 <dbl>, wk61 <dbl>, wk62 <dbl>, wk63 <dbl>, wk64 <dbl>,
#> #   wk65 <dbl>, wk66 <lgl>, wk67 <lgl>, wk68 <lgl>, wk69 <lgl>, wk70 <lgl>,
#> #   wk71 <lgl>, wk72 <lgl>, wk73 <lgl>, wk74 <lgl>, wk75 <lgl>, wk76 <lgl>

billboard %>% 
  pivot_longer(
    cols = starts_with("wk"), 
    names_to = "week",
    names_prefix = 'wk', 
    values_to = "rank",
    values_drop_na = T
  )
#> # A tibble: 5,307 x 5
#>    artist  track                   date.entered week   rank
#>    <chr>   <chr>                   <date>       <chr> <dbl>
#>  1 2 Pac   Baby Don't Cry (Keep... 2000-02-26   1        87
#>  2 2 Pac   Baby Don't Cry (Keep... 2000-02-26   2        82
#>  3 2 Pac   Baby Don't Cry (Keep... 2000-02-26   3        72
#>  4 2 Pac   Baby Don't Cry (Keep... 2000-02-26   4        77
#>  5 2 Pac   Baby Don't Cry (Keep... 2000-02-26   5        87
#>  6 2 Pac   Baby Don't Cry (Keep... 2000-02-26   6        94
#>  7 2 Pac   Baby Don't Cry (Keep... 2000-02-26   7        99
#>  8 2Ge+her The Hardest Part Of ... 2000-09-02   1        91
#>  9 2Ge+her The Hardest Part Of ... 2000-09-02   2        87
#> 10 2Ge+her The Hardest Part Of ... 2000-09-02   3        92
#> # … with 5,297 more rows
…
df <- tribble(
  ~subject,  ~f_1,  ~f_2, ~m_1, ~m_2,
         1,    11,    21,   31,   41,
         2,    12,    22,   32,   42,
         3,    13,    23,   33,   43,
)

df %>% 
  pivot_longer(
    cols = !subject,
    names_to = c('sex', 'level'),
    names_sep = '_'
  )
#> # A tibble: 12 x 4
#>    subject sex   level value
#>      <dbl> <chr> <chr> <dbl>
#>  1       1 f     1        11
#>  2       1 f     2        21
#>  3       1 m     1        31
#>  4       1 m     2        41
#>  5       2 f     1        12
#>  6       2 f     2        22
#>  7       2 m     1        32
#>  8       2 m     2        42
#>  9       3 f     1        13
#> 10       3 f     2        23
#> # … with 2 more rows

df %>% 
  pivot_longer(
    cols = !subject,
    names_to = c('sex', 'level'),
    names_pattern = '(.)_(.)'
  )
#> # A tibble: 12 x 4
#>    subject sex   level value
#>      <dbl> <chr> <chr> <dbl>
#>  1       1 f     1        11
#>  2       1 f     2        21
#>  3       1 m     1        31
#>  4       1 m     2        41
#>  5       2 f     1        12
#>  6       2 f     2        22
#>  7       2 m     1        32
#>  8       2 m     2        42
#>  9       3 f     1        13
#> 10       3 f     2        23
#> # … with 2 more rows

names_sep and names_pattern work same as separate() and extract(), you can also use separate() or extract() after pivot_longer():

df %>% 
  pivot_longer(cols = !subject) %>% 
  separate(col = 'name', into = c('sex', 'level'), sep = '_')
#> # A tibble: 12 x 4
#>    subject sex   level value
#>      <dbl> <chr> <chr> <dbl>
#>  1       1 f     1        11
#>  2       1 f     2        21
#>  3       1 m     1        31
#>  4       1 m     2        41
#>  5       2 f     1        12
#>  6       2 f     2        22
#>  7       2 m     1        32
#>  8       2 m     2        42
#>  9       3 f     1        13
#> 10       3 f     2        23
#> # … with 2 more rows

df %>% 
  pivot_longer(cols = !subject) %>% 
  extract(col = 'name', into = c('sex', 'level'), regex = '(.)_(.)')
#> # A tibble: 12 x 4
#>    subject sex   level value
#>      <dbl> <chr> <chr> <dbl>
#>  1       1 f     1        11
#>  2       1 f     2        21
#>  3       1 m     1        31
#>  4       1 m     2        41
#>  5       2 f     1        12
#>  6       2 f     2        22
#>  7       2 m     1        32
#>  8       2 m     2        42
#>  9       3 f     1        13
#> 10       3 f     2        23
#> # … with 2 more rows
…
pivot_wider(
  data,
  id_cols = NULL,
  names_from = name,
  names_prefix = "",
  names_sep = "_",
  names_glue = NULL,
  values_from = value,
  values_fill = NULL
)

3.2.1 Simplest case

table2
#> # A tibble: 12 x 4
#>    country      year type            count
#>    <chr>       <int> <chr>           <int>
#>  1 Afghanistan  1999 cases             745
#>  2 Afghanistan  1999 population   19987071
#>  3 Afghanistan  2000 cases            2666
#>  4 Afghanistan  2000 population   20595360
#>  5 Brazil       1999 cases           37737
#>  6 Brazil       1999 population  172006362
#>  7 Brazil       2000 cases           80488
#>  8 Brazil       2000 population  174504898
#>  9 China        1999 cases          212258
#> 10 China        1999 population 1272915272
#> # … with 2 more rows
…
3.2.2 Fill in missing values

You can fill in missing values with values_fill:

fish_encounters
#> # A tibble: 114 x 3
#>    fish  station  seen
#>    <fct> <fct>   <int>
#>  1 4842  Release     1
#>  2 4842  I80_1       1
#>  3 4842  Lisbon      1
#>  4 4842  Rstr        1
#>  5 4842  Base_TD     1
#>  6 4842  BCE         1
#>  7 4842  BCW         1
#>  8 4842  BCE2        1
#>  9 4842  BCW2        1
#> 10 4842  MAE         1
#> # … with 104 more rows

fish_encounters %>% pivot_wider(names_from = station, values_from = seen)
#> # A tibble: 19 x 12
#>    fish  Release I80_1 Lisbon  Rstr Base_TD   BCE   BCW  BCE2  BCW2   MAE   MAW
#>    <fct>   <int> <int>  <int> <int>   <int> <int> <int> <int> <int> <int> <int>
#>  1 4842        1     1      1     1       1     1     1     1     1     1     1
#>  2 4843        1     1      1     1       1     1     1     1     1     1     1
#>  3 4844        1     1      1     1       1     1     1     1     1     1     1
#>  4 4845        1     1      1     1       1    NA    NA    NA    NA    NA    NA
#>  5 4847        1     1      1    NA      NA    NA    NA    NA    NA    NA    NA
#>  6 4848        1     1      1     1      NA    NA    NA    NA    NA    NA    NA
#>  7 4849        1     1     NA    NA      NA    NA    NA    NA    NA    NA    NA
#>  8 4850        1     1     NA     1       1     1     1    NA    NA    NA    NA
#>  9 4851        1     1     NA    NA      NA    NA    NA    NA    NA    NA    NA
#> 10 4854        1     1     NA    NA      NA    NA    NA    NA    NA    NA    NA
#> # … with 9 more rows

fish_encounters %>% pivot_wider(names_from = station, values_from = seen, values_fill = 0)
#> # A tibble: 19 x 12
#>    fish  Release I80_1 Lisbon  Rstr Base_TD   BCE   BCW  BCE2  BCW2   MAE   MAW
#>    <fct>   <int> <int>  <int> <int>   <int> <int> <int> <int> <int> <int> <int>
#>  1 4842        1     1      1     1       1     1     1     1     1     1     1
#>  2 4843        1     1      1     1       1     1     1     1     1     1     1
#>  3 4844        1     1      1     1       1     1     1     1     1     1     1
#>  4 4845        1     1      1     1       1     0     0     0     0     0     0
#>  5 4847        1     1      1     0       0     0     0     0     0     0     0
#>  6 4848        1     1      1     1       0     0     0     0     0     0     0
#>  7 4849        1     1      0     0       0     0     0     0     0     0     0
#>  8 4850        1     1      0     1       1     1     1     0     0     0     0
#>  9 4851        1     1      0     0       0     0     0     0     0     0     0
#> 10 4854        1     1      0     0       0     0     0     0     0     0     0
#> # … with 9 more rows
…
When names_from or values_from contains multiple variables, names_sep or names_glue can be used to generate the new column names.

use names_sep or names_glue to combine multiple names_from:

production <- expand_grid(
    product = c("A", "B"), 
    country = c("AI", "EI"), 
    year = 2000:2014
  ) %>%
  filter((product == "A" & country == "AI") | product == "B") %>% 
  mutate(production = rnorm(n()))

production
#> # A tibble: 45 x 4
#>    product country  year production
#>    <chr>   <chr>   <int>      <dbl>
#>  1 A       AI       2000      0.896
#>  2 A       AI       2001      0.732
#>  3 A       AI       2002     -0.308
#>  4 A       AI       2003     -0.951
#>  5 A       AI       2004     -0.356
#>  6 A       AI       2005      1.32 
#>  7 A       AI       2006     -0.125
#>  8 A       AI       2007      0.515
#>  9 A       AI       2008      0.667
#> 10 A       AI       2009     -0.464
#> # … with 35 more rows

production %>% pivot_wider(
  names_from = c(product, country), 
  values_from = production,
  names_sep = "."
)
#> # A tibble: 15 x 4
#>     year   A.AI      B.AI    B.EI
#>    <int>  <dbl>     <dbl>   <dbl>
#>  1  2000  0.896 -0.0120   -0.366 
#>  2  2001  0.732 -0.993    -0.639 
#>  3  2002 -0.308 -0.306     0.952 
#>  4  2003 -0.951  0.159    -0.484 
#>  5  2004 -0.356 -0.000914 -0.680 
#>  6  2005  1.32  -0.672     0.200 
#>  7  2006 -0.125  2.65     -0.0429
#>  8  2007  0.515  2.00      0.509 
#>  9  2008  0.667  1.41     -1.16  
#> 10  2009 -0.464  0.604     0.846 
#> # … with 5 more rows

production %>% pivot_wider(
  names_from = c(product, country), 
  values_from = production,
  names_glue = "{country}_{product}"
)
#> # A tibble: 15 x 4
#>     year   AI_A      AI_B    EI_B
#>    <int>  <dbl>     <dbl>   <dbl>
#>  1  2000  0.896 -0.0120   -0.366 
#>  2  2001  0.732 -0.993    -0.639 
#>  3  2002 -0.308 -0.306     0.952 
#>  4  2003 -0.951  0.159    -0.484 
#>  5  2004 -0.356 -0.000914 -0.680 
#>  6  2005  1.32  -0.672     0.200 
#>  7  2006 -0.125  2.65     -0.0429
#>  8  2007  0.515  2.00      0.509 
#>  9  2008  0.667  1.41     -1.16  
#> 10  2009 -0.464  0.604     0.846 
#> # … with 5 more rows

use multiple values_from to pivot groups of columns:

us_rent_income
#> # A tibble: 104 x 5
#>    GEOID NAME       variable estimate   moe
#>    <chr> <chr>      <chr>       <dbl> <dbl>
#>  1 01    Alabama    income      24476   136
#>  2 01    Alabama    rent          747     3
#>  3 02    Alaska     income      32940   508
#>  4 02    Alaska     rent         1200    13
#>  5 04    Arizona    income      27517   148
#>  6 04    Arizona    rent          972     4
#>  7 05    Arkansas   income      23789   165
#>  8 05    Arkansas   rent          709     5
#>  9 06    California income      29454   109
#> 10 06    California rent         1358     3
#> # … with 94 more rows

us_rent_income %>%
  pivot_wider(
    names_from = variable,
    names_glue = "{variable}_{.value}",
    values_from = c(estimate, moe)
  )
#> # A tibble: 52 x 6
#>    GEOID NAME                 income_estimate rent_estimate income_moe rent_moe
#>    <chr> <chr>                          <dbl>         <dbl>      <dbl>    <dbl>
#>  1 01    Alabama                        24476           747        136        3
#>  2 02    Alaska                         32940          1200        508       13
#>  3 04    Arizona                        27517           972        148        4
#>  4 05    Arkansas                       23789           709        165        5
#>  5 06    California                     29454          1358        109        3
#>  6 08    Colorado                       32401          1125        109        5
#>  7 09    Connecticut                    35326          1123        195        5
#>  8 10    Delaware                       31560          1076        247       10
#>  9 11    District of Columbia           43198          1424        681       17
#> 10 12    Florida                        25952          1077         70        3
#> # … with 42 more rows
…
fruits %>% expand(type, year)
#> # A tibble: 4 x 2
#>   type    year
#>   <chr>  <dbl>
#> 1 apple   2010
#> 2 apple   2012
#> 3 orange  2010
#> 4 orange  2012

fruits %>% expand(type, year, size)
#> # A tibble: 12 x 3
#>    type    year size 
#>    <chr>  <dbl> <chr>
#>  1 apple   2010 M    
#>  2 apple   2010 S    
#>  3 apple   2010 XS   
#>  4 apple   2012 M    
#>  5 apple   2012 S    
#>  6 apple   2012 XS   
#>  7 orange  2010 M    
#>  8 orange  2010 S    
#>  9 orange  2010 XS   
#> 10 orange  2012 M    
#> # … with 2 more rows

It’s same as using expand_grid() and unique() out of the dataset:

expand_grid(type = unique(fruits$type), year = unique(fruits$year))
#> # A tibble: 4 x 2
#>   type    year
#>   <chr>  <dbl>
#> 1 apple   2010
#> 2 apple   2012
#> 3 orange  2010
#> 4 orange  2012

expand_grid(type = unique(fruits$type), year = unique(fruits$year), size = unique(fruits$size))
#> # A tibble: 12 x 3
#>    type    year size 
#>    <chr>  <dbl> <chr>
#>  1 apple   2010 XS   
#>  2 apple   2010 S    
#>  3 apple   2010 M    
#>  4 apple   2012 XS   
#>  5 apple   2012 S    
#>  6 apple   2012 M    
#>  7 orange  2010 XS   
#>  8 orange  2010 S    
#>  9 orange  2010 M    
#> 10 orange  2012 XS   
#> # … with 2 more rows
…
5.2.2 unnest_longer()

unnest_longer(data, col, values_to = NULL, indices_to = NULL) turn each element of a list-column into a row.

starwars %>% select(name, films)
#> # A tibble: 87 x 2
#>    name               films    
#>    <chr>              <list>   
#>  1 Luke Skywalker     <chr [5]>
#>  2 C-3PO              <chr [6]>
#>  3 R2-D2              <chr [7]>
#>  4 Darth Vader        <chr [4]>
#>  5 Leia Organa        <chr [5]>
#>  6 Owen Lars          <chr [3]>
#>  7 Beru Whitesun lars <chr [3]>
#>  8 R5-D4              <chr [1]>
#>  9 Biggs Darklighter  <chr [1]>
#> 10 Obi-Wan Kenobi     <chr [6]>
#> # … with 77 more rows

starwars %>% 
  select(name, films) %>% 
  unnest_longer(films)
#> # A tibble: 173 x 2
#>    name           films                  
#>    <chr>          <chr>                  
#>  1 Luke Skywalker The Empire Strikes Back
#>  2 Luke Skywalker Revenge of the Sith    
#>  3 Luke Skywalker Return of the Jedi     
#>  4 Luke Skywalker A New Hope             
#>  5 Luke Skywalker The Force Awakens      
#>  6 C-3PO          The Empire Strikes Back
#>  7 C-3PO          Attack of the Clones   
#>  8 C-3PO          The Phantom Menace     
#>  9 C-3PO          Revenge of the Sith    
#> 10 C-3PO          Return of the Jedi     
#> # … with 163 more rows
…
iris_data <- tibble(species = excel_sheets('./data/iris_species.xlsx')) %>% 
  rowwise() %>% 
  mutate(data = list(read_excel('./data/iris_species.xlsx', sheet = species)))

iris_data
#> # A tibble: 3 x 2
#> # Rowwise: 
#>   species    data                 
#>   <chr>      <list>               
#> 1 setosa     <tibble[,4] [50 × 4]>
#> 2 versicolor <tibble[,4] [50 × 4]>
#> 3 virginica  <tibble[,4] [50 × 4]>

iris_data %>% unnest(data)
#> # A tibble: 150 x 5
#>    species Sepal.Length Sepal.Width Petal.Length Petal.Width
#>    <chr>          <dbl>       <dbl>        <dbl>       <dbl>
#>  1 setosa           5.1         3.5          1.4         0.2
#>  2 setosa           4.9         3            1.4         0.2
#>  3 setosa           4.7         3.2          1.3         0.2
#>  4 setosa           4.6         3.1          1.5         0.2
#>  5 setosa           5           3.6          1.4         0.2
#>  6 setosa           5.4         3.9          1.7         0.4
#>  7 setosa           4.6         3.4          1.4         0.3
#>  8 setosa           5           3.4          1.5         0.2
#>  9 setosa           4.4         2.9          1.4         0.2
#> 10 setosa           4.9         3.1          1.5         0.1
#> # … with 140 more rows
…
