pipe
…
folder

## [1] "C1D1" "C2D1"

starwars %>% 
  select(name, height, species) %>% 
  filter(species %in% c('Human', 'Droid')) %>% 
  mutate(mean_height = mean(height, na.rm = T)) %>% 
  group_by(species) %>% 
  mutate(mean_height_by_species = mean(height, na.rm = T)) %>% 
  ungroup()

## # A tibble: 41 x 5
##    name               height species mean_height mean_height_by_species
##    <chr>               <int> <chr>         <dbl>                  <dbl>
##  1 Luke Skywalker        172 Human          170.                   177.
##  2 C-3PO                 167 Droid          170.                   131.
##  3 R2-D2                  96 Droid          170.                   131.
##  4 Darth Vader           202 Human          170.                   177.
##  5 Leia Organa           150 Human          170.                   177.
##  6 Owen Lars             178 Human          170.                   177.
##  7 Beru Whitesun lars    165 Human          170.                   177.
##  8 R5-D4                  97 Droid          170.                   131.
##  9 Biggs Darklighter     183 Human          170.                   177.
## 10 Obi-Wan Kenobi        182 Human          170.                   177.
## # … with 31 more rows
…
