Data Import and Write
…
read_csv("./data/text.zip")
#> 
#> ── Column specification ────────────────────────────────────────────────────────
#> cols(
#>   .default = col_character(),
#>   SiteID = col_double(),
#>   SubjectID = col_double(),
#>   CRFVersion = col_double()
#> )
#> ℹ Use `spec()` for the full column specifications.
#> # A tibble: 240 x 20
#>    StudyName  EnvironmentName SiteGroupName SiteID SiteNumber SiteName SubjectID
#>    <chr>      <chr>           <chr>          <dbl> <chr>      <chr>        <dbl>
#>  1 BGB-3111-… UAT             World           1721 UATU0001   BGB UAT…    258577
#>  2 BGB-3111-… UAT             World           1721 UATU0001   BGB UAT…    303338
#>  3 BGB-3111-… UAT             World           1721 UATU0001   BGB UAT…    305387
#>  4 BGB-3111-… UAT             World           1721 UATU0001   BGB UAT…    309326
#>  5 BGB-3111-… UAT             World           1721 UATU0001   BGB UAT…    312356
#>  6 BGB-3111-… UAT             World           1721 UATU0001   BGB UAT…    320585
#>  7 BGB-3111-… UAT             World           1721 UATU0001   BGB UAT…    362433
#>  8 BGB-3111-… UAT             World           1721 UATU0001   BGB UAT…    363219
#>  9 BGB-3111-… UAT             World           1721 UATU0001   BGB UAT…    316194
#> 10 BGB-3111-… UAT             World           1721 UATU0001   BGB UAT…    316250
#> 11 BGB-3111-… UAT             World           1722 UATU0002   BGB UAT…    259154
#> # … with 229 more rows, and 13 more variables: SubjectName <chr>,
#> #   CRFVersion <dbl>, SubjectStatus <chr>, Created <chr>, ParamStudy <chr>,
#> #   ParamEnvironment <chr>, ParamSiteGroup <chr>, ParamSites <chr>,
#> #   ParamSubjects <chr>, Login <chr>, RoleName <chr>, PrintDateTime <chr>,
#> #   TimeZone <chr>
…
#> ── Column specification ────────────────────────────────────────────────────────
#> cols(
#>   mpg = col_double(),
#>   cyl = col_double(),
#>   disp = col_double(),
#>   hp = col_double(),
#>   drat = col_double(),
#>   wt = col_double(),
#>   qsec = col_double(),
#>   vs = col_double(),
#>   am = col_double(),
#>   gear = col_double(),
#>   carb = col_double()
#> )
#> # A tibble: 32 x 11
#>      mpg   cyl  disp    hp  drat    wt  qsec    vs    am  gear  carb
#>    <dbl> <dbl> <dbl> <dbl> <dbl> <dbl> <dbl> <dbl> <dbl> <dbl> <dbl>
#>  1  21       6  160    110  3.9   2.62  16.5     0     1     4     4
#>  2  21       6  160    110  3.9   2.88  17.0     0     1     4     4
#>  3  22.8     4  108     93  3.85  2.32  18.6     1     1     4     1
#>  4  21.4     6  258    110  3.08  3.22  19.4     1     0     3     1
#>  5  18.7     8  360    175  3.15  3.44  17.0     0     0     3     2
#>  6  18.1     6  225    105  2.76  3.46  20.2     1     0     3     1
#>  7  14.3     8  360    245  3.21  3.57  15.8     0     0     3     4
#>  8  24.4     4  147.    62  3.69  3.19  20       1     0     4     2
#>  9  22.8     4  141.    95  3.92  3.15  22.9     1     0     4     2
#> 10  19.2     6  168.   123  3.92  3.44  18.3     1     0     4     4
#> 11  17.8     6  168.   123  3.92  3.44  18.9     1     0     4     4
#> # … with 21 more rows
…
read_csv("./data/text.csv", col_names = FALSE)
#> 
#> ── Column specification ────────────────────────────────────────────────────────
#> cols(
#>   X1 = col_character(),
#>   X2 = col_character(),
#>   X3 = col_character(),
#>   X4 = col_character(),
#>   X5 = col_character()
#> )
#> # A tibble: 12 x 5
#>    X1           X2    X3              X4              X5        
#>    <chr>        <chr> <chr>           <chr>           <chr>     
#>  1 StudyName    age   EnvironmentName "SiteGroupName" SiteNumber
#>  2 BGB-3111-217 56    UAT             "World"         UATU0001  
#>  3 BGB-3111-217 65    .               "World"         <NA>      
#>  4 BGB-3111-217 45    UAT             "\"\""          UATU0001  
#>  5 BGB-3111-217 65    UAT              <NA>           UATU0001  
#>  6 BGB-3111-217 21    UAT             "World"         UATU0001  
#>  7 <NA>         <NA>  <NA>             <NA>           <NA>      
#>  8 BGB-3111-217 54    UAT             "World"         UATU#0001 
#>  9 BGB-3111-217 78    UAT             "World"         UATU0001  
#> 10 BGB-3111-217 89    UAT             "World"         UATU0001  
#> 11 BGB-3111-217 36    UAT             "World"         #UATU0001 
#> # … with 1 more row
…
#> cols(
#>   var1 = col_character(),
#>   var2 = col_character(),
#>   var3 = col_character()
#> )
#> Warning: 12 parsing failures.
#> row col  expected    actual              file
#>   1  -- 3 columns 5 columns './data/text.csv'
#>   2  -- 3 columns 5 columns './data/text.csv'
#>   3  -- 3 columns 5 columns './data/text.csv'
#>   4  -- 3 columns 5 columns './data/text.csv'
#>   5  -- 3 columns 5 columns './data/text.csv'
#> ... ... ......... ......... .................
#> See problems(...) for more details.
#> # A tibble: 12 x 3
#>    var1         var2  var3           
#>    <chr>        <chr> <chr>          
#>  1 StudyName    age   EnvironmentName
#>  2 BGB-3111-217 56    UAT            
#>  3 BGB-3111-217 65    .              
#>  4 BGB-3111-217 45    UAT            
#>  5 BGB-3111-217 65    UAT            
#>  6 BGB-3111-217 21    UAT            
#>  7 <NA>         <NA>  <NA>           
#>  8 BGB-3111-217 54    UAT            
#>  9 BGB-3111-217 78    UAT            
#> 10 BGB-3111-217 89    UAT            
#> 11 BGB-3111-217 36    UAT            
#> # … with 1 more row
…
